…
By using `<-` we assign the dataset to the object `xmas_movies`. Because we 
assign the data frame to an object no outpu is created. If we want to check that our data
has been loaded, we can see the content of the data frame by typing its name:
`xmas_movies` in the console.


``` r
xmas_movies
## Try also
## view(xmas_movies)
## head(xmas_movies)
```

``` output
# A tibble: 873 × 15
   title       rating runtime imdb_rating tmdb_rating meta_score genre_1 genre_2
   <chr>       <chr>    <dbl>       <dbl>       <dbl>      <dbl> <chr>   <chr>  
 1 Love Actua… R          135         7.6         4.3         55 Comedy  Drama  
 2 Home Alone  PG         103         7.7         8.8         63 Comedy  Family 
 3 National L… PG-13       97         7.5         7.1         49 Comedy  <NA>   
 4 Elf         PG          97         7.1         6           66 Advent… Comedy 
 5 How the Gr… PG         104         6.3         2.5         46 Comedy  Family 
 6 The Grinch  PG          85         6.4         2.5         51 Animat… Comedy 
 7 Die Hard    R          132         8.2         1.8         72 Action  Thrill…
 8 Home Alone… PG         120         6.9         8.1         46 Advent… Comedy 
 9 The Polar … G          100         6.6         6           61 Animat… Advent…
10 It's a Won… PG         130         8.6         6.9         89 Drama   Family 
# ℹ 863 more rows
# ℹ 7 more variables: genre_3 <chr>, release_year <dbl>, description <chr>,
#   director <chr>, stars <chr>, votes <dbl>, gross <chr>
```
…
``` r
## first column of the tibble
xmas_movies[1]
```

``` output
# A tibble: 873 × 1
   title                                
   <chr>                                
 1 Love Actually                        
 2 Home Alone                           
 3 National Lampoon's Christmas Vacation
 4 Elf                                  
 5 How the Grinch Stole Christmas       
 6 The Grinch                           
 7 Die Hard                             
 8 Home Alone 2: Lost in New York       
 9 The Polar Express                    
10 It's a Wonderful Life                
# ℹ 863 more rows
```
…
`:` is a special function that creates numeric vectors of integers in increasing
or decreasing order, test `1:10` and `10:1` for instance.

You can also exclude certain indices of a data frame using the "`-`" sign:


``` r
xmas_movies[, -1]          # The whole tibble, except the first column
```

``` output
# A tibble: 873 × 14
   rating runtime imdb_rating tmdb_rating meta_score genre_1   genre_2   genre_3
   <chr>    <dbl>       <dbl>       <dbl>      <dbl> <chr>     <chr>     <chr>  
 1 R          135         7.6         4.3         55 Comedy    Drama     Romance
 2 PG         103         7.7         8.8         63 Comedy    Family    <NA>   
 3 PG-13       97         7.5         7.1         49 Comedy    <NA>      <NA>   
 4 PG          97         7.1         6           66 Adventure Comedy    Family 
 5 PG         104         6.3         2.5         46 Comedy    Family    Fantasy
 6 PG          85         6.4         2.5         51 Animation Comedy    Family 
 7 R          132         8.2         1.8         72 Action    Thriller  <NA>   
 8 PG         120         6.9         8.1         46 Adventure Comedy    Crime  
 9 G          100         6.6         6           61 Animation Adventure Comedy 
10 PG         130         8.6         6.9         89 Drama     Family    Fantasy
# ℹ 863 more rows
# ℹ 6 more variables: release_year <dbl>, description <chr>, director <chr>,
#   stars <chr>, votes <dbl>, gross <chr>
```

``` r
xmas_movies[-c(7:131), ]   # Equivalent to head(interviews)
```

``` output
# A tibble: 748 × 15
   title       rating runtime imdb_rating tmdb_rating meta_score genre_1 genre_2
   <chr>       <chr>    <dbl>       <dbl>       <dbl>      <dbl> <chr>   <chr>  
 1 Love Actua… R          135         7.6         4.3         55 Comedy  Drama  
 2 Home Alone  PG         103         7.7         8.8         63 Comedy  Family 
 3 National L… PG-13       97         7.5         7.1         49 Comedy  <NA>   
 4 Elf         PG          97         7.1         6           66 Advent… Comedy 
 5 How the Gr… PG         104         6.3         2.5         46 Comedy  Family 
 6 The Grinch  PG          85         6.4         2.5         51 Animat… Comedy 
 7 The Christ… <NA>        86         5           3.1         NA Comedy  Romance
 8 The Apartm… Appro…     125         8.3         2.2         94 Comedy  Drama  
 9 A Season f… TV-G        90         7           4           NA Romance <NA>   
10 A Princess… TV-G        91         6.3         8.7         NA Comedy  Drama  
# ℹ 738 more rows
# ℹ 7 more variables: genre_3 <chr>, release_year <dbl>, description <chr>,
#   director <chr>, stars <chr>, votes <dbl>, gross <chr>
```
…
