…
To select columns of a dataframe, use `select()`. The first argument to this
function is the dataframe (`xmas_movies`), and the subsequent arguments are the
columns to keep, separated by commas. Alternatively, if you are selecting
columns adjacent to each other, you can use a `:` to select a range of columns,
read as "select columns from ___ to ___."


``` r
# to select columns throughout the dataframe
select(xmas_movies, title, description)
```

``` output
# A tibble: 873 × 2
   title                                 description                            
   <chr>                                 <chr>                                  
 1 Love Actually                         Follows the lives of eight very differ…
 2 Home Alone                            An eight-year-old troublemaker, mistak…
 3 National Lampoon's Christmas Vacation The Griswold family's plans for a big …
 4 Elf                                   Raised as an oversized elf, Buddy trav…
 5 How the Grinch Stole Christmas        On the outskirts of Whoville lives a g…
 6 The Grinch                            A grumpy Grinch plots to ruin Christma…
 7 Die Hard                              A New York City police officer tries t…
 8 Home Alone 2: Lost in New York        One year after Kevin McCallister was l…
 9 The Polar Express                     On Christmas Eve, a young boy embarks …
10 It's a Wonderful Life                 An angel is sent from Heaven to help a…
# ℹ 863 more rows
```

``` r
# to select a series of connected columns
select(xmas_movies, title:description)
```

``` output
# A tibble: 873 × 11
   title       rating runtime imdb_rating tmdb_rating meta_score genre_1 genre_2
   <chr>       <chr>    <dbl>       <dbl>       <dbl>      <dbl> <chr>   <chr>  
 1 Love Actua… R          135         7.6         4.3         55 Comedy  Drama  
 2 Home Alone  PG         103         7.7         8.8         63 Comedy  Family 
 3 National L… PG-13       97         7.5         7.1         49 Comedy  <NA>   
 4 Elf         PG          97         7.1         6           66 Advent… Comedy 
 5 How the Gr… PG         104         6.3         2.5         46 Comedy  Family 
 6 The Grinch  PG          85         6.4         2.5         51 Animat… Comedy 
 7 Die Hard    R          132         8.2         1.8         72 Action  Thrill…
 8 Home Alone… PG         120         6.9         8.1         46 Advent… Comedy 
 9 The Polar … G          100         6.6         6           61 Animat… Advent…
10 It's a Won… PG         130         8.6         6.9         89 Drama   Family 
# ℹ 863 more rows
# ℹ 3 more variables: genre_3 <chr>, release_year <dbl>, description <chr>
```

To choose rows based on specific criteria, we can use the `filter()` function.
The argument after the dataframe is the condition we want our final
dataframe to adhere to (e.g. rating is PG-13): 


``` r
# filters observations where rating name is "PG-13" 
filter(xmas_movies, rating == "PG-13")
```

``` output
# A tibble: 24 × 15
   title       rating runtime imdb_rating tmdb_rating meta_score genre_1 genre_2
   <chr>       <chr>    <dbl>       <dbl>       <dbl>      <dbl> <chr>   <chr>  
 1 National L… PG-13       97         7.5         7.1         49 Comedy  <NA>   
 2 Scrooged    PG-13      101         6.9         7.9         38 Comedy  Drama  
 3 Spirited    PG-13      127         6.6         3           55 Comedy  Family 
 4 Last Chris… PG-13      103         6.5         4.7         50 Comedy  Drama  
 5 Four Chris… PG-13       88         5.7         3.6         41 Comedy  Drama  
 6 Happiest S… PG-13      102         6.6         6           69 Comedy  Romance
 7 Shazam!     PG-13      132         7           3.4         71 Action  Advent…
 8 Surviving … PG-13       91         5.4         3.5         19 Comedy  Romance
 9 Batman Ret… PG-13      126         7.1         7.4         68 Action  Crime  
10 Edward Sci… PG-13      105         7.9         2.9         74 Drama   Fantasy
# ℹ 14 more rows
# ℹ 7 more variables: genre_3 <chr>, release_year <dbl>, description <chr>,
#   director <chr>, stars <chr>, votes <dbl>, gross <chr>
```
…
In an "or" statement, observations must meet *at least one* of the specified conditions. 
To form "or" statements we use the logical operator for "or," which is the vertical bar (|): 


``` r
# filters observations with "|" logical operator
# output dataframe satisfies AT LEAST ONE of the specified conditions
filter(xmas_movies, rating == "PG-13" | 
                   runtime > 100 | 
                   imdb_rating < 6.0)
```

``` output
# A tibble: 398 × 15
   title       rating runtime imdb_rating tmdb_rating meta_score genre_1 genre_2
   <chr>       <chr>    <dbl>       <dbl>       <dbl>      <dbl> <chr>   <chr>  
 1 Love Actua… R          135         7.6         4.3         55 Comedy  Drama  
 2 Home Alone  PG         103         7.7         8.8         63 Comedy  Family 
 3 National L… PG-13       97         7.5         7.1         49 Comedy  <NA>   
 4 How the Gr… PG         104         6.3         2.5         46 Comedy  Family 
 5 Die Hard    R          132         8.2         1.8         72 Action  Thrill…
 6 Home Alone… PG         120         6.9         8.1         46 Advent… Comedy 
 7 It's a Won… PG         130         8.6         6.9         89 Drama   Family 
 8 White Chri… <NA>       120         7.6         9           56 Comedy  Musical
 9 Scrooged    PG-13      101         6.9         7.9         38 Comedy  Drama  
10 Spirited    PG-13      127         6.6         3           55 Comedy  Family 
# ℹ 388 more rows
# ℹ 7 more variables: genre_3 <chr>, release_year <dbl>, description <chr>,
#   director <chr>, stars <chr>, votes <dbl>, gross <chr>
```
…
``` r
xmas_movies %>%
    filter(rating == "PG-13") %>%
    select(title,description)
```

``` output
# A tibble: 24 × 2
   title                                 description                            
   <chr>                                 <chr>                                  
 1 National Lampoon's Christmas Vacation The Griswold family's plans for a big …
 2 Scrooged                              A selfish, cynical television executiv…
 3 Spirited                              A musical version of Charles Dickens's…
 4 Last Christmas                        Kate is a young woman subscribed to ba…
 5 Four Christmases                      A couple struggles to visit all four o…
 6 Happiest Season                       A holiday romantic comedy that capture…
 7 Shazam!                               A newly fostered young boy in search o…
 8 Surviving Christmas                   A lonely, obnoxious young millionaire …
 9 Batman Returns                        While Batman deals with a deformed man…
10 Edward Scissorhands                   The solitary life of an artificial man…
# ℹ 14 more rows
```
…
If we want to create a new object with this smaller version of the data, we
can assign it a new name:


``` r
xmas_movies_ch <- xmas_movies %>%
    filter(rating == "PG-13") %>%
    select(title,description)

xmas_movies_ch
```

``` output
# A tibble: 24 × 2
   title                                 description                            
   <chr>                                 <chr>                                  
 1 National Lampoon's Christmas Vacation The Griswold family's plans for a big …
 2 Scrooged                              A selfish, cynical television executiv…
 3 Spirited                              A musical version of Charles Dickens's…
 4 Last Christmas                        Kate is a young woman subscribed to ba…
 5 Four Christmases                      A couple struggles to visit all four o…
 6 Happiest Season                       A holiday romantic comedy that capture…
 7 Shazam!                               A newly fostered young boy in search o…
 8 Surviving Christmas                   A lonely, obnoxious young millionaire …
 9 Batman Returns                        While Batman deals with a deformed man…
10 Edward Scissorhands                   The solitary life of an artificial man…
# ℹ 14 more rows
```
…
::::

:::: solution

## Solution


``` r
xmas_movies %>%
     filter(release_year > 1980) %>%
     select(title, runtime, rating)
```

``` output
# A tibble: 786 × 3
   title                                 runtime rating
   <chr>                                   <dbl> <chr> 
 1 Love Actually                             135 R     
 2 Home Alone                                103 PG    
 3 National Lampoon's Christmas Vacation      97 PG-13 
 4 Elf                                        97 PG    
 5 How the Grinch Stole Christmas            104 PG    
 6 The Grinch                                 85 PG    
 7 Die Hard                                  132 R     
 8 Home Alone 2: Lost in New York            120 PG    
 9 The Polar Express                         100 G     
10 The Santa Clause                           97 PG    
# ℹ 776 more rows
```
…
Frequently you'll want to create new columns based on the values in existing
columns, for example to do unit conversions, or to find the ratio of values in
two columns. For this we'll use `mutate()`.

We might be interested in knowing the differences in scores on imdb vs tmdb:


``` r
xmas_movies %>%
  mutate(score_difference = imdb_rating - tmdb_rating) %>% 
  select(imdb_rating, tmdb_rating, score_difference)
```

``` output
# A tibble: 873 × 3
   imdb_rating tmdb_rating score_difference
         <dbl>       <dbl>            <dbl>
 1         7.6         4.3            3.3  
 2         7.7         8.8           -1.10 
 3         7.5         7.1            0.400
 4         7.1         6              1.1  
 5         6.3         2.5            3.8  
 6         6.4         2.5            3.9  
 7         8.2         1.8            6.4  
 8         6.9         8.1           -1.2  
 9         6.6         6              0.600
10         8.6         6.9            1.7  
# ℹ 863 more rows
```
…
``` r
xmas_movies %>%
    group_by(genre_1, rating) %>%
    summarize(mean_imdb_rating = mean(imdb_rating, na.rm = TRUE))
```

``` output
`summarise()` has grouped output by 'genre_1'. You can override using the
`.groups` argument.
```

``` output
# A tibble: 74 × 3
# Groups:   genre_1 [19]
   genre_1   rating   mean_imdb_rating
   <chr>     <chr>               <dbl>
 1 Action    PG                   4.6 
 2 Action    PG-13                7.05
 3 Action    R                    7.05
 4 Action    <NA>                 6.8 
 5 Adventure Approved             7.1 
 6 Adventure G                    5.25
 7 Adventure PG                   6.41
 8 Adventure Passed               8.1 
 9 Adventure R                    6.2 
10 Adventure TV-G                 5.9 
# ℹ 64 more rows
```
…
``` r
xmas_movies %>%
    group_by(genre_1, rating) %>%
    summarize(mean_imdb_rating = mean(imdb_rating, na.rm = TRUE)) %>%
    ungroup()
```

``` output
`summarise()` has grouped output by 'genre_1'. You can override using the
`.groups` argument.
```

``` output
# A tibble: 74 × 3
   genre_1   rating   mean_imdb_rating
   <chr>     <chr>               <dbl>
 1 Action    PG                   4.6 
 2 Action    PG-13                7.05
 3 Action    R                    7.05
 4 Action    <NA>                 6.8 
 5 Adventure Approved             7.1 
 6 Adventure G                    5.25
 7 Adventure PG                   6.41
 8 Adventure Passed               8.1 
 9 Adventure R                    6.2 
10 Adventure TV-G                 5.9 
# ℹ 64 more rows
```
…
``` output
`summarise()` has grouped output by 'genre_1'. You can override using the
`.groups` argument.
```

``` output
# A tibble: 74 × 4
# Groups:   genre_1 [19]
   genre_1   rating   mean_imdb_rating max_imdb_rating
   <chr>     <chr>               <dbl>           <dbl>
 1 Action    PG                   4.6              4.6
 2 Action    PG-13                7.05             7.1
 3 Action    R                    7.05             8.2
 4 Action    <NA>                 6.8              6.8
 5 Adventure Approved             7.1              7.1
 6 Adventure G                    5.25             5.7
 7 Adventure PG                   6.41             7.1
 8 Adventure Passed               8.1              8.1
 9 Adventure R                    6.2              6.2
10 Adventure TV-G                 5.9              6.5
# ℹ 64 more rows
```
…
``` output
`summarise()` has grouped output by 'genre_1'. You can override using the
`.groups` argument.
```

``` output
# A tibble: 74 × 4
# Groups:   genre_1 [19]
   genre_1     rating mean_imdb_rating max_imdb_rating
   <chr>       <chr>             <dbl>           <dbl>
 1 Documentary <NA>             NaN             -Inf  
 2 News        TV-G             NaN             -Inf  
 3 News        <NA>             NaN             -Inf  
 4 Family      TV-Y               2.9              2.9
 5 Romance     PG                 4.4              4.4
 6 Action      PG                 4.6              4.6
 7 Adventure   G                  5.25             5.7
 8 Crime       TV-PG              5.7              5.7
 9 Fantasy     <NA>               5.8              5.8
10 <NA>        <NA>               5.9              5.9
# ℹ 64 more rows
```
…
``` output
`summarise()` has grouped output by 'genre_1'. You can override using the
`.groups` argument.
```

``` output
# A tibble: 74 × 4
# Groups:   genre_1 [19]
   genre_1   rating   mean_imdb_rating max_imdb_rating
   <chr>     <chr>               <dbl>           <dbl>
 1 Comedy    TV-MA                7.14             9.2
 2 Comedy    <NA>                 5.76             9  
 3 Drama     PG                   6.88             8.6
 4 Music     <NA>                 6.9              8.6
 5 Drama     TV-G                 6.43             8.5
 6 Family    <NA>                 5.35             8.5
 7 Animation <NA>                 6.38             8.4
 8 Comedy    TV-Y                 6.45             8.4
 9 Animation TV-G                 6.24             8.3
10 Comedy    Approved             6.81             8.3
# ℹ 64 more rows
```
#### Counting

When working with data, we often want to know the number of observations found
for each factor or combination of factors. For this task, **`dplyr`** provides
`count()`. For example, if we wanted to count the number of rows of data for
each village, we would do:


``` r
xmas_movies %>%
    count(release_year)
```

``` output
# A tibble: 83 × 2
   release_year     n
          <dbl> <int>
 1         1898     1
 2         1925     2
 3         1928     1
 4         1931     1
 5         1934     2
 6         1935     1
 7         1936     2
 8         1937     1
 9         1938     3
10         1939     3
# ℹ 73 more rows
```

For convenience, `count()` provides the `sort` argument to get results in
decreasing order:


``` r
xmas_movies %>%
    count(release_year, sort = TRUE)
```

``` output
# A tibble: 83 × 2
   release_year     n
          <dbl> <int>
 1         2020    88
 2         2022    77
 3         2019    73
 4         2021    72
 5         2018    69
 6         2017    49
 7         2023    45
 8         2016    40
 9         2015    37
10         2014    31
# ℹ 73 more rows
```
…
