Introduction to R 🎄 The Xmas edition 🎄: All in One View
…
R

xmas_movies
## Try also
## view(xmas_movies)
## head(xmas_movies)

OUTPUT

# A tibble: 873 × 14
   title       rating runtime imdb_rating tmdb_rating meta_score genre_1 genre_2
   <chr>       <chr>    <dbl>       <dbl>       <dbl>      <dbl> <chr>   <chr>
 1 Love Actua… R          135         7.6         4.3         55 Comedy  Drama
 2 Home Alone  PG         103         7.7         8.8         63 Comedy  Family
 3 National L… PG-13       97         7.5         7.1         49 Comedy  <NA>
 4 Elf         PG          97         7.1         6           66 Advent… Comedy
 5 How the Gr… PG         104         6.3         2.5         46 Comedy  Family
 6 The Grinch  PG          85         6.4         2.5         51 Animat… Comedy
 7 Die Hard    R          132         8.2         1.8         72 Action  Thrill…
 8 Home Alone… PG         120         6.9         8.1         46 Advent… Comedy
 9 The Polar … G          100         6.6         6           61 Animat… Advent…
10 It's a Won… PG         130         8.6         6.9         89 Drama   Family
# ℹ 863 more rows
# ℹ 6 more variables: genre_3 <chr>, description <chr>, director <chr>,
#   stars <chr>, votes <dbl>, gross <chr>
…
[1] "Love Actually"
[2] "Home Alone"
[3] "National Lampoon's Christmas Vacation"
[4] "Elf"
[5] "How the Grinch Stole Christmas"
[6] "The Grinch"                           

R

## first column of the tibble
xmas_movies[1]

OUTPUT

# A tibble: 873 × 1
   title
   <chr>
 1 Love Actually
 2 Home Alone
 3 National Lampoon's Christmas Vacation
 4 Elf
 5 How the Grinch Stole Christmas
 6 The Grinch
 7 Die Hard
 8 Home Alone 2: Lost in New York
 9 The Polar Express
10 It's a Wonderful Life
# ℹ 863 more rows
…
: is a special function that creates numeric vectors of
integers in increasing or decreasing order, test 1:10 and
10:1 for instance.

You can also exclude certain indices of a data frame using the
“-” sign:

R

xmas_movies[, -1]          # The whole tibble, except the first column

OUTPUT

# A tibble: 873 × 13
   rating runtime imdb_rating tmdb_rating meta_score genre_1   genre_2   genre_3
   <chr>    <dbl>       <dbl>       <dbl>      <dbl> <chr>     <chr>     <chr>
 1 R          135         7.6         4.3         55 Comedy    Drama     Romance
 2 PG         103         7.7         8.8         63 Comedy    Family    <NA>
 3 PG-13       97         7.5         7.1         49 Comedy    <NA>      <NA>
 4 PG          97         7.1         6           66 Adventure Comedy    Family
 5 PG         104         6.3         2.5         46 Comedy    Family    Fantasy
 6 PG          85         6.4         2.5         51 Animation Comedy    Family
 7 R          132         8.2         1.8         72 Action    Thriller  <NA>
 8 PG         120         6.9         8.1         46 Adventure Comedy    Crime
 9 G          100         6.6         6           61 Animation Adventure Comedy
10 PG         130         8.6         6.9         89 Drama     Family    Fantasy
# ℹ 863 more rows
# ℹ 5 more variables: description <chr>, director <chr>, stars <chr>,
#   votes <dbl>, gross <chr>

R

xmas_movies[-c(7:131), ]   # Equivalent to head(interviews)

OUTPUT

# A tibble: 748 × 14
   title       rating runtime imdb_rating tmdb_rating meta_score genre_1 genre_2
   <chr>       <chr>    <dbl>       <dbl>       <dbl>      <dbl> <chr>   <chr>
 1 Love Actua… R          135         7.6         4.3         55 Comedy  Drama
 2 Home Alone  PG         103         7.7         8.8         63 Comedy  Family
 3 National L… PG-13       97         7.5         7.1         49 Comedy  <NA>
 4 Elf         PG          97         7.1         6           66 Advent… Comedy
 5 How the Gr… PG         104         6.3         2.5         46 Comedy  Family
 6 The Grinch  PG          85         6.4         2.5         51 Animat… Comedy
 7 The Christ… <NA>        86         5           3.1         NA Comedy  Romance
 8 The Apartm… Appro…     125         8.3         2.2         94 Comedy  Drama
 9 A Season f… TV-G        90         7           4           NA Romance <NA>
10 A Princess… TV-G        91         6.3         8.7         NA Comedy  Drama
# ℹ 738 more rows
# ℹ 6 more variables: genre_3 <chr>, description <chr>, director <chr>,
#   stars <chr>, votes <dbl>, gross <chr>
…
To select columns of a dataframe, use select(). The
first argument to this function is the dataframe
(xmas_movies), and the subsequent arguments are the columns
to keep, separated by commas. Alternatively, if you are selecting
columns adjacent to each other, you can use a : to select a
range of columns, read as “select columns from ___ to ___.”

R

# to select columns throughout the dataframe
select(xmas_movies, title, description)

OUTPUT

# A tibble: 873 × 2
   title                                 description
   <chr>                                 <chr>
 1 Love Actually                         Follows the lives of eight very differ…
 2 Home Alone                            An eight-year-old troublemaker, mistak…
 3 National Lampoon's Christmas Vacation The Griswold family's plans for a big …
 4 Elf                                   Raised as an oversized elf, Buddy trav…
 5 How the Grinch Stole Christmas        On the outskirts of Whoville lives a g…
 6 The Grinch                            A grumpy Grinch plots to ruin Christma…
 7 Die Hard                              A New York City police officer tries t…
 8 Home Alone 2: Lost in New York        One year after Kevin McCallister was l…
 9 The Polar Express                     On Christmas Eve, a young boy embarks …
10 It's a Wonderful Life                 An angel is sent from Heaven to help a…
# ℹ 863 more rows

R

# to select a series of connected columns
select(xmas_movies, title:description)

OUTPUT

# A tibble: 873 × 10
   title       rating runtime imdb_rating tmdb_rating meta_score genre_1 genre_2
   <chr>       <chr>    <dbl>       <dbl>       <dbl>      <dbl> <chr>   <chr>
 1 Love Actua… R          135         7.6         4.3         55 Comedy  Drama
 2 Home Alone  PG         103         7.7         8.8         63 Comedy  Family
 3 National L… PG-13       97         7.5         7.1         49 Comedy  <NA>
 4 Elf         PG          97         7.1         6           66 Advent… Comedy
 5 How the Gr… PG         104         6.3         2.5         46 Comedy  Family
 6 The Grinch  PG          85         6.4         2.5         51 Animat… Comedy
 7 Die Hard    R          132         8.2         1.8         72 Action  Thrill…
 8 Home Alone… PG         120         6.9         8.1         46 Advent… Comedy
 9 The Polar … G          100         6.6         6           61 Animat… Advent…
10 It's a Won… PG         130         8.6         6.9         89 Drama   Family
# ℹ 863 more rows
# ℹ 2 more variables: genre_3 <chr>, description <chr>

To choose rows based on specific criteria, we can use the
filter() function. The argument after the dataframe is the
condition we want our final dataframe to adhere to (e.g. rating is
PG-13):

R

# filters observations where rating name is "PG-13" 
filter(xmas_movies, rating == "PG-13")

OUTPUT

# A tibble: 24 × 14
   title       rating runtime imdb_rating tmdb_rating meta_score genre_1 genre_2
   <chr>       <chr>    <dbl>       <dbl>       <dbl>      <dbl> <chr>   <chr>
 1 National L… PG-13       97         7.5         7.1         49 Comedy  <NA>
 2 Scrooged    PG-13      101         6.9         7.9         38 Comedy  Drama
 3 Spirited    PG-13      127         6.6         3           55 Comedy  Family
 4 Last Chris… PG-13      103         6.5         4.7         50 Comedy  Drama
 5 Four Chris… PG-13       88         5.7         3.6         41 Comedy  Drama
 6 Happiest S… PG-13      102         6.6         6           69 Comedy  Romance
 7 Shazam!     PG-13      132         7           3.4         71 Action  Advent…
 8 Surviving … PG-13       91         5.4         3.5         19 Comedy  Romance
 9 Batman Ret… PG-13      126         7.1         7.4         68 Action  Crime
10 Edward Sci… PG-13      105         7.9         2.9         74 Drama   Fantasy
# ℹ 14 more rows
# ℹ 6 more variables: genre_3 <chr>, description <chr>, director <chr>,
#   stars <chr>, votes <dbl>, gross <chr>
…
In an “or” statement, observations must meet at least one of
the specified conditions. To form “or” statements we use the logical
operator for “or,” which is the vertical bar (|):

R

# filters observations with "|" logical operator
# output dataframe satisfies AT LEAST ONE of the specified conditions
filter(xmas_movies, rating == "PG-13" | 
                   runtime > 100 | 
                   imdb_rating < 6.0)

OUTPUT

# A tibble: 398 × 14
   title       rating runtime imdb_rating tmdb_rating meta_score genre_1 genre_2
   <chr>       <chr>    <dbl>       <dbl>       <dbl>      <dbl> <chr>   <chr>
 1 Love Actua… R          135         7.6         4.3         55 Comedy  Drama
 2 Home Alone  PG         103         7.7         8.8         63 Comedy  Family
 3 National L… PG-13       97         7.5         7.1         49 Comedy  <NA>
 4 How the Gr… PG         104         6.3         2.5         46 Comedy  Family
 5 Die Hard    R          132         8.2         1.8         72 Action  Thrill…
 6 Home Alone… PG         120         6.9         8.1         46 Advent… Comedy
 7 It's a Won… PG         130         8.6         6.9         89 Drama   Family
 8 White Chri… <NA>       120         7.6         9           56 Comedy  Musical
 9 Scrooged    PG-13      101         6.9         7.9         38 Comedy  Drama
10 Spirited    PG-13      127         6.6         3           55 Comedy  Family
# ℹ 388 more rows
# ℹ 6 more variables: genre_3 <chr>, description <chr>, director <chr>,
#   stars <chr>, votes <dbl>, gross <chr>
…
- Ctrl + Shift + M if you have a PC or
Cmd + Shift + M if you have a Mac.

R

xmas_movies %>%
    filter(rating == "PG-13") %>%
    select(title,description)

OUTPUT

# A tibble: 24 × 2
   title                                 description
   <chr>                                 <chr>
 1 National Lampoon's Christmas Vacation The Griswold family's plans for a big …
 2 Scrooged                              A selfish, cynical television executiv…
 3 Spirited                              A musical version of Charles Dickens's…
 4 Last Christmas                        Kate is a young woman subscribed to ba…
 5 Four Christmases                      A couple struggles to visit all four o…
 6 Happiest Season                       A holiday romantic comedy that capture…
 7 Shazam!                               A newly fostered young boy in search o…
 8 Surviving Christmas                   A lonely, obnoxious young millionaire …
 9 Batman Returns                        While Batman deals with a deformed man…
10 Edward Scissorhands                   The solitary life of an artificial man…
# ℹ 14 more rows
…
If we want to create a new object with this smaller version of the
data, we can assign it a new name:

R

xmas_movies_ch <- xmas_movies %>%
    filter(rating == "PG-13") %>%
    select(title,description)

xmas_movies_ch

OUTPUT

# A tibble: 24 × 2
   title                                 description
   <chr>                                 <chr>
 1 National Lampoon's Christmas Vacation The Griswold family's plans for a big …
 2 Scrooged                              A selfish, cynical television executiv…
 3 Spirited                              A musical version of Charles Dickens's…
 4 Last Christmas                        Kate is a young woman subscribed to ba…
 5 Four Christmases                      A couple struggles to visit all four o…
 6 Happiest Season                       A holiday romantic comedy that capture…
 7 Shazam!                               A newly fostered young boy in search o…
 8 Surviving Christmas                   A lonely, obnoxious young millionaire …
 9 Batman Returns                        While Batman deals with a deformed man…
10 Edward Scissorhands                   The solitary life of an artificial man…
# ℹ 14 more rows
…
We might be interested in knowing the differences in scores on imdb
vs tmdb:

R

xmas_movies %>%
  mutate(score_difference = imdb_rating - tmdb_rating) %>% 
  select(imdb_rating, tmdb_rating, score_difference)

OUTPUT

# A tibble: 873 × 3
   imdb_rating tmdb_rating score_difference
         <dbl>       <dbl>            <dbl>
 1         7.6         4.3            3.3
 2         7.7         8.8           -1.10
 3         7.5         7.1            0.400
 4         7.1         6              1.1
 5         6.3         2.5            3.8
 6         6.4         2.5            3.9
 7         8.2         1.8            6.4
 8         6.9         8.1           -1.2
 9         6.6         6              0.600
10         8.6         6.9            1.7
# ℹ 863 more rows
…
